Biostat 200C Homework 1
…
So the negative Hessian is a positive semidefinite matrix and then the log-likelihood function of logistic regression is a concave function.

3 Q3.

The National Institute of Diabetes and Digestive and Kidney Diseases conducted a study on 768 adult female Pima Indians living near Phoenix. The purpose of the study was to investigate factors related to diabetes. The data may be found in the the dataset pima.

library(faraway)
library(tidyverse)
pima1 <- as.tibble(pima) |>
  print(width = Inf)

# A tibble: 768 × 9
   pregnant glucose diastolic triceps insulin   bmi diabetes   age  test
      <int>   <int>     <int>   <int>   <int> <dbl>    <dbl> <int> <int>
 1        6     148        72      35       0  33.6    0.627    50     1
 2        1      85        66      29       0  26.6    0.351    31     0
 3        8     183        64       0       0  23.3    0.672    32     1
 4        1      89        66      23      94  28.1    0.167    21     0
 5        0     137        40      35     168  43.1    2.29     33     1
 6        5     116        74       0       0  25.6    0.201    30     0
 7        3      78        50      32      88  31      0.248    26     1
 8       10     115         0       0       0  35.3    0.134    29     0
 9        2     197        70      45     543  30.5    0.158    53     1
10        8     125        96       0       0   0      0.232    54     1
# ℹ 758 more rows
…
