Biostat 200C Homework 2
…
Load the tidyverse package for data manipulation and visualization.

# tidyverse of data manipulation and visualization
library(tidyverse)

Read in the data of COVID-19 cases reported on 2020-04-04.

county_count <- read_csv("./datasets/04-04-2020.csv.gz") %>%
  # cast fips into dbl for use as a key for joining tables
  mutate(FIPS = as.numeric(FIPS)) %>%
  filter(Country_Region == "US") %>%
  print(width = Inf)

# A tibble: 2,421 × 12
    FIPS Admin2    Province_State Country_Region Last_Update           Lat
   <dbl> <chr>     <chr>          <chr>          <dttm>              <dbl>
 1 45001 Abbeville South Carolina US             2020-04-04 23:34:21  34.2
 2 22001 Acadia    Louisiana      US             2020-04-04 23:34:21  30.3
 3 51001 Accomack  Virginia       US             2020-04-04 23:34:21  37.8
 4 16001 Ada       Idaho          US             2020-04-04 23:34:21  43.5
 5 19001 Adair     Iowa           US             2020-04-04 23:34:21  41.3
 6 21001 Adair     Kentucky       US             2020-04-04 23:34:21  37.1
 7 29001 Adair     Missouri       US             2020-04-04 23:34:21  40.2
 8 40001 Adair     Oklahoma       US             2020-04-04 23:34:21  35.9
 9  8001 Adams     Colorado       US             2020-04-04 23:34:21  39.9
10 16003 Adams     Idaho          US             2020-04-04 23:34:21  44.9
    Long_ Confirmed Deaths Recovered Active Combined_Key                 
    <dbl>     <dbl>  <dbl>     <dbl>  <dbl> <chr>                        
 1  -82.5         6      0         0      0 Abbeville, South Carolina, US
 2  -92.4        65      2         0      0 Acadia, Louisiana, US        
 3  -75.6         8      0         0      0 Accomack, Virginia, US       
 4 -116.        360      3         0      0 Ada, Idaho, US               
 5  -94.5         1      0         0      0 Adair, Iowa, US              
 6  -85.3         3      0         0      0 Adair, Kentucky, US          
 7  -92.6        10      0         0      0 Adair, Missouri, US          
 8  -94.7        14      0         0      0 Adair, Oklahoma, US          
 9 -104.        294      9         0      0 Adams, Colorado, US          
10 -116.          1      0         0      0 Adams, Idaho, US             
# ℹ 2,411 more rows
…
We want to exclude entries from Diamond Princess, Grand Princess, Guam, Northern Mariana Islands, Puerto Rico, Recovered, and Virgin Islands, and only consider counties from 50 states and DC.

county_count <- county_count %>%
  filter(!(province_state %in% c("Diamond Princess", "Grand Princess", 
                                 "Recovered", "Guam", "Northern Mariana Islands", 
                                 "Puerto Rico", "Virgin Islands"))) %>%
  print(width = Inf)

# A tibble: 2,413 × 12
    fips admin2    province_state country_region last_update           lat
   <dbl> <chr>     <chr>          <chr>          <dttm>              <dbl>
 1 45001 Abbeville South Carolina US             2020-04-04 23:34:21  34.2
 2 22001 Acadia    Louisiana      US             2020-04-04 23:34:21  30.3
 3 51001 Accomack  Virginia       US             2020-04-04 23:34:21  37.8
 4 16001 Ada       Idaho          US             2020-04-04 23:34:21  43.5
 5 19001 Adair     Iowa           US             2020-04-04 23:34:21  41.3
 6 21001 Adair     Kentucky       US             2020-04-04 23:34:21  37.1
 7 29001 Adair     Missouri       US             2020-04-04 23:34:21  40.2
 8 40001 Adair     Oklahoma       US             2020-04-04 23:34:21  35.9
 9  8001 Adams     Colorado       US             2020-04-04 23:34:21  39.9
10 16003 Adams     Idaho          US             2020-04-04 23:34:21  44.9
    long_ confirmed deaths recovered active combined_key                 
    <dbl>     <dbl>  <dbl>     <dbl>  <dbl> <chr>                        
 1  -82.5         6      0         0      0 Abbeville, South Carolina, US
 2  -92.4        65      2         0      0 Acadia, Louisiana, US        
 3  -75.6         8      0         0      0 Accomack, Virginia, US       
 4 -116.        360      3         0      0 Ada, Idaho, US               
 5  -94.5         1      0         0      0 Adair, Iowa, US              
 6  -85.3         3      0         0      0 Adair, Kentucky, US          
 7  -92.6        10      0         0      0 Adair, Missouri, US          
 8  -94.7        14      0         0      0 Adair, Oklahoma, US          
 9 -104.        294      9         0      0 Adams, Colorado, US          
10 -116.          1      0         0      0 Adams, Idaho, US             
# ℹ 2,403 more rows
…
Because COVID-19 pandemic was still ongoing in 2020, we should realize some critical assumptions for defining CFR are not met using this datasets.

Numbers of confirmed cases do not reflect the number of diagnosed people. This is mainly limited by the availability of testing.

Some confirmed cases may die later.

With acknowledgement of these severe limitations, we continue to use deaths/confirmed as a very rough proxy of CFR.

1.4 Q1.1

Read and run above code to generate a data frame county_data that includes county-level COVID-19 confirmed cases and deaths, demographic, and health related information.

county_data

# A tibble: 1,446 × 31
   county    confirmed deaths state       percent_fair_or_poor…¹ percent_smokers
   <chr>         <dbl>  <dbl> <fct>                        <dbl>           <dbl>
 1 Abbeville         6      0 South Caro…                   19.9            17.3
 2 Acadia           65      2 Louisiana                     20.9            21.5
 3 Accomack          8      0 Virginia                      20.1            18.3
 4 Ada             360      3 Idaho                         11.5            12.0
 5 Adair            10      0 Missouri                      21.4            20.5
 6 Adair            14      0 Oklahoma                      28.5            27.7
 7 Adams           294      9 Colorado                      16.6            16.3
 8 Adams            16      0 Mississippi                   27.3            22.2
 9 Adams             8      0 Nebraska                      15.8            14.6
10 Adams            21      0 Pennsylvan…                   15.3            16.2
# ℹ 1,436 more rows
# ℹ abbreviated name: ¹​percent_fair_or_poor_health
# ℹ 25 more variables: percent_adults_with_obesity <dbl>,
#   percent_with_access_to_exercise_opportunities <dbl>,
#   percent_excessive_drinking <dbl>, percent_uninsured <dbl>,
#   percent_some_college <dbl>, percent_unemployed <dbl>,
#   percent_children_in_poverty <dbl>, …
…
logit_fit |>
  collect_metrics() |>
  print(width = Inf) |>
  filter(.metric == "roc_auc") |>
  ggplot(mapping = aes(x = penalty, y = mean)) +
  geom_point() +
  labs(x = "Penalty", y = "CV AUC") +
  scale_x_log10()

# A tibble: 40 × 7
       penalty .metric  .estimator  mean     n  std_err .config              
         <dbl> <chr>    <chr>      <dbl> <int>    <dbl> <chr>                
 1 0.0000001   accuracy binary     0.977     5 0.000144 Preprocessor1_Model01
 2 0.0000001   roc_auc  binary     0.615     5 0.00248  Preprocessor1_Model01
 3 0.000000162 accuracy binary     0.977     5 0.000144 Preprocessor1_Model02
 4 0.000000162 roc_auc  binary     0.615     5 0.00248  Preprocessor1_Model02
 5 0.000000264 accuracy binary     0.977     5 0.000144 Preprocessor1_Model03
 6 0.000000264 roc_auc  binary     0.615     5 0.00248  Preprocessor1_Model03
 7 0.000000428 accuracy binary     0.977     5 0.000144 Preprocessor1_Model04
 8 0.000000428 roc_auc  binary     0.615     5 0.00248  Preprocessor1_Model04
 9 0.000000695 accuracy binary     0.977     5 0.000144 Preprocessor1_Model05
10 0.000000695 roc_auc  binary     0.615     5 0.00248  Preprocessor1_Model05
# ℹ 30 more rows
…
