Biostat 200C Homework 5
…
age 7 yrs = −2, 8 yrs = −1, 9 yrs =0, 10 yrs = 1

smoke an indicator of maternal smoking at the first year of the study (1=smoker, 0 = nonsmoker)

4.1 Q4.1

Do any of the mothers in the study change their smoking status during the period of observation?

Answer:

ohio |>
  group_by(id) |>
  summarise(smoke_change = n_distinct(smoke))

# A tibble: 537 × 2
      id smoke_change
   <int>        <int>
 1     0            1
 2     1            1
 3     2            1
 4     3            1
 5     4            1
 6     5            1
 7     6            1
 8     7            1
 9     8            1
10     9            1
# ℹ 527 more rows
…
